{
    "mail": "yinpenghawk@gmail.com",
    "address":"0xe5ca90a1632ba84a2f99f109536c249db9f8573a",
    "tech":"React+Springboot+Ethereum",
    "desc":"If you are interested in this project, we can perfect it together.we also need talents of AI or big data Mail: Donation:"

}